Età,Maschi,Femmine,Totale
0,214,191,405
1,226,231,457
2,262,223,485
3,265,243,508
4,266,284,550
5,286,265,551
6,274,288,562
7,298,293,591
8,332,261,593
9,312,298,610
10,294,288,582
11,310,284,594
12,331,290,621
13,303,331,634
14,278,300,578
15,315,283,598
16,312,286,598
17,309,298,607
18,338,281,619
19,338,293,631
20,350,295,645
21,352,287,639
22,357,288,645
23,354,289,643
24,346,327,673
25,370,316,686
26,372,282,654
27,353,310,663
28,373,312,685
29,406,359,765
30,386,336,722
31,397,397,794
32,381,362,743
33,407,393,800
34,384,384,768
35,395,423,818
36,415,432,847
37,433,473,906
38,450,463,913
39,430,433,863
40,505,442,947
41,521,492,1013
42,471,482,953
43,487,533,1020
44,535,543,1078
45,549,579,1128
46,540,600,1140
47,533,560,1093
48,508,534,1042
49,515,552,1067
50,541,577,1118
51,573,589,1162
52,514,597,1111
53,600,555,1155
54,582,586,1168
55,530,560,1090
56,516,544,1060
57,501,499,1000
58,441,463,904
59,434,497,931
60,434,460,894
61,404,460,864
62,384,422,806
63,378,457,835
64,434,464,898
65,380,419,799
66,378,440,818
67,345,399,744
68,355,431,786
69,365,400,765
70,379,468,847
71,359,446,805
72,385,405,790
73,322,443,765
74,278,359,637
75,279,355,634
76,271,354,625
77,248,316,564
78,255,333,588
79,263,344,607
80,268,325,593
81,226,326,552
82,202,296,498
83,182,262,444
84,162,266,428
85,155,233,388
86,134,220,354
87,126,192,318
88,95,157,252
89,78,189,267
90,65,141,206
91,35,99,134
92,25,86,111
93,27,71,98
94,18,51,69
95,14,40,54
96,5,40,45
97,8,21,29
98,5,18,23
99,0,11,11
100 e più,2,11,13
TOTALE,32698,34686,67384

