Età,Maschi,Femmine,Totale
0,146,124,270
1,148,135,283
2,156,133,289
3,146,161,307
4,160,150,310
5,162,181,343
6,182,159,341
7,181,180,361
8,213,195,408
9,195,196,391
10,216,197,413
11,189,182,371
12,195,200,395
13,218,189,407
14,217,167,384
15,194,193,387
16,221,206,427
17,222,206,428
18,211,190,401
19,221,208,429
20,214,221,435
21,272,230,502
22,284,216,500
23,314,229,543
24,284,219,503
25,277,269,546
26,267,249,516
27,282,222,504
28,284,261,545
29,256,242,498
30,253,222,475
31,240,247,487
32,265,248,513
33,247,250,497
34,266,239,505
35,230,266,496
36,268,223,491
37,257,242,499
38,265,285,550
39,282,283,565
40,276,282,558
41,313,337,650
42,321,333,654
43,312,329,641
44,316,353,669
45,333,396,729
46,332,367,699
47,346,389,735
48,321,366,687
49,349,408,757
50,360,364,724
51,368,418,786
52,360,411,771
53,375,417,792
54,394,388,782
55,364,401,765
56,338,410,748
57,338,406,744
58,322,408,730
59,339,355,694
60,315,344,659
61,293,341,634
62,287,353,640
63,273,342,615
64,275,327,602
65,264,316,580
66,274,302,576
67,252,307,559
68,241,316,557
69,277,327,604
70,293,288,581
71,275,338,613
72,274,299,573
73,250,307,557
74,216,260,476
75,212,251,463
76,197,256,453
77,169,241,410
78,188,248,436
79,183,299,482
80,186,247,433
81,198,251,449
82,157,228,385
83,155,172,327
84,145,207,352
85,112,153,265
86,122,168,290
87,76,135,211
88,78,140,218
89,84,116,200
90,63,115,178
91,28,94,122
92,37,80,117
93,15,56,71
94,19,58,77
95,12,40,52
96,5,18,23
97,4,28,32
98,3,19,22
99,5,10,15
100 e più,0,11,11
TOTALE,22389,24361,46750

