Età,Maschi,Femmine,Totale
0,614,635,1249
1,620,618,1238
2,643,592,1235
3,678,660,1338
4,686,671,1357
5,737,666,1403
6,733,675,1408
7,756,712,1468
8,750,655,1405
9,785,760,1545
10,857,715,1572
11,824,796,1620
12,839,780,1619
13,876,769,1645
14,852,796,1648
15,791,810,1601
16,856,752,1608
17,875,779,1654
18,835,796,1631
19,851,768,1619
20,915,813,1728
21,978,847,1825
22,940,872,1812
23,985,888,1873
24,1013,830,1843
25,1035,897,1932
26,1027,872,1899
27,1052,965,2017
28,1137,924,2061
29,1151,999,2150
30,1144,1035,2179
31,1198,1087,2285
32,1206,1043,2249
33,1242,1095,2337
34,1143,1027,2170
35,1152,1010,2162
36,1144,1048,2192
37,1099,1069,2168
38,1109,976,2085
39,1092,1025,2117
40,1073,1029,2102
41,1125,1073,2198
42,1038,1075,2113
43,1210,1198,2408
44,1263,1247,2510
45,1347,1467,2814
46,1359,1475,2834
47,1525,1513,3038
48,1507,1647,3154
49,1701,1610,3311
50,1578,1692,3270
51,1598,1660,3258
52,1566,1616,3182
53,1544,1627,3171
54,1536,1655,3191
55,1623,1729,3352
56,1647,1812,3459
57,1713,1731,3444
58,1625,1654,3279
59,1445,1587,3032
60,1497,1498,2995
61,1400,1460,2860
62,1346,1451,2797
63,1258,1448,2706
64,1231,1406,2637
65,1286,1330,2616
66,1152,1362,2514
67,1135,1275,2410
68,1029,1277,2306
69,1068,1292,2360
70,1044,1273,2317
71,1101,1467,2568
72,1077,1357,2434
73,1193,1452,2645
74,1169,1572,2741
75,1208,1500,2708
76,840,1030,1870
77,901,1286,2187
78,950,1241,2191
79,922,1260,2182
80,926,1309,2235
81,972,1383,2355
82,831,1272,2103
83,788,1208,1996
84,692,1089,1781
85,522,931,1453
86,515,865,1380
87,426,783,1209
88,369,720,1089
89,304,638,942
90,256,541,797
91,211,508,719
92,140,427,567
93,117,306,423
94,77,277,354
95,67,238,305
96,50,193,243
97,28,121,149
98,31,108,139
99,12,80,92
100 e più,19,133,152
Totale,96403,104191,200594

