Età,Maschi,Femmine,Totale
0,579,610,1189
1,602,555,1157
2,677,599,1276
3,663,628,1291
4,683,661,1344
5,712,726,1438
6,735,705,1440
7,779,759,1538
8,804,798,1602
9,892,829,1721
10,876,839,1715
11,906,833,1739
12,934,900,1834
13,969,912,1881
14,943,875,1818
15,992,935,1927
16,976,969,1945
17,956,946,1902
18,1016,997,2013
19,1011,940,1951
20,989,979,1968
21,1079,970,2049
22,1105,950,2055
23,1078,884,1962
24,944,902,1846
25,911,954,1865
26,968,896,1864
27,980,960,1940
28,1019,926,1945
29,1030,992,2022
30,991,944,1935
31,986,954,1940
32,944,965,1909
33,999,974,1973
34,945,954,1899
35,961,1022,1983
36,994,1006,2000
37,987,995,1982
38,1031,1036,2067
39,1062,1044,2106
40,1005,1114,2119
41,1141,1097,2238
42,1166,1238,2404
43,1180,1229,2409
44,1306,1238,2544
45,1323,1395,2718
46,1379,1478,2857
47,1444,1513,2957
48,1385,1450,2835
49,1322,1493,2815
50,1373,1464,2837
51,1388,1469,2857
52,1424,1506,2930
53,1416,1575,2991
54,1434,1501,2935
55,1422,1628,3050
56,1434,1624,3058
57,1439,1621,3060
58,1329,1553,2882
59,1312,1593,2905
60,1347,1573,2920
61,1329,1428,2757
62,1253,1450,2703
63,1201,1381,2582
64,1238,1393,2631
65,1204,1331,2535
66,1163,1354,2517
67,1134,1285,2419
68,1120,1247,2367
69,1096,1207,2303
70,1121,1280,2401
71,1056,1319,2375
72,1102,1248,2350
73,1168,1362,2530
74,1112,1325,2437
75,990,1333,2323
76,961,1158,2119
77,838,1003,1841
78,729,964,1693
79,737,939,1676
80,676,846,1522
81,783,965,1748
82,574,923,1497
83,588,835,1423
84,488,784,1272
85,388,649,1037
86,365,619,984
87,296,605,901
88,263,507,770
89,218,488,706
90,157,389,546
91,146,350,496
92,96,289,385
93,64,194,258
94,42,153,195
95,40,123,163
96,21,89,110
97,35,52,87
98,15,43,58
99,15,32,47
100 e più,11,44,55
Totale,90510,98661,189171
